 <!-- <li><a href="{% url 'update-status:index' %}"><b> Status </b></a> </li> -->
        <!-- <li><a href="{% url 'profile-page:index' %}"><b> Profile </b></a> </li> -->
        <!-- <li><a href="{% url 'Add-Friend:index' %}"><b> Friends </b></a> </li> -->
        <!-- <li><a href="{% url 'dashboard:index' %}"><b> Stats </b></a> </li> -->
		
		
		 $(function() {
          $('a[href*="#"]:not([href="#"])').click(function() {
            if (location.pathname.replace(/^\//,'') == this.pathname.replace(/^\//,'') && location.hostname == this.hostname) {
              var target = $(this.hash);
              target = target.length ? target : $('[name=' + this.hash.slice(1) +']');
              if (target.length) {
                $('html, body').animate({
                  scrollTop: target.offset().top - 55
                }, 1000);
                return false;
              }
            }
          });
        });
		
		#STATICFILES_STORAGE = 'whitenoise.storage.CompressedManifestStaticFilesStorage'